
setup_vision = yes
government = monarchy
add_government_reform = feudalism_reform
government_rank = 1
primary_culture = sarda
historical_friend = G35 #Arverynn
religion = ynn_river_worship
technology_group = tech_ynnic
capital = 1135

1000.1.1 = {
	set_estate_privilege = estate_mages_organization_guilds
	set_country_flag = ynn_river_worship_flag
	add_country_modifier = {
		name = ynn_diplo
		duration = -1
	}
}

1444.11.1 = {
	monarch = {
		name = "Calranval III"
		dynasty = "yen Stenur"
		birth_date = 1410.4.21
		adm = 3
		dip = 3
		mil = 3
	}
	add_ruler_modifier = {
		name = ynn_zodiac_14
		duration = -1
	}
	change_personal_deity = ynn_zodiac_7
	heir = {
		name = "Lodisard"
		monarch_name = "Lodisard II"
		dynasty = "yen Stenur"
		birth_date = 1431.07.26
		death_date = 1519.09.17
		claim = 95
		adm = 4
		dip = 2
		mil = 3
	}
}